# Changelog
All notable changes to this project will be documented in this file.

The format is based on [Keep a Changelog](https://keepachangelog.com/en/1.0.0/),
and this project adheres to [Semantic Versioning](https://semver.org/spec/v2.0.0.html).

## [Unreleased]

## [1.0.0] - 2017-06-20
### Added
- New visual identity by [@tylerfortune8](https://github.com/tylerfortune8).
- Version navigation.
- Links to latest released version in previous versions.
- "Why keep a changelog?" section.
- "Who needs a changelog?" section.
- "How do I make a changelog?" section.
- "Frequently Asked Questions" section.
- New "Guiding Principles" sub-section to "How do I make a changelog?".
- Simplified and Traditional Chinese translations from [@tianshuo](https://github.com/tianshuo).
- German translation from [@mpbzh](https://github.com/mpbzh) & [@Art4](https://github.com/Art4).
- Italian translation from [@azkidenz](https://github.com/azkidenz).
- Swedish translation from [@magol](https://github.com/magol).
- Turkish translation from [@karalamalar](https://github.com/karalamalar).
- French translation from [@zapashcanon](https://github.com/zapashcanon).
- Brazilian Portugese translation from [@Webysther](https://github.com/Webysther).
- Polish translation from [@amielucha](https://github.com/amielucha) & [@m-aciek](https://github.com/m-aciek).
- Russian translation from [@aishek](https://github.com/aishek).
- Czech translation from [@h4vry](https://github.com/h4vry).
- Slovak translation from [@jkostolansky](https://github.com/jkostolansky).
- Korean translation from [@pierceh89](https://github.com/pierceh89).
- Croatian translation from [@porx](https://github.com/porx).
- Persian translation from [@Hameds](https://github.com/Hameds).
- Ukrainian translation from [@osadchyi-s](https://github.com/osadchyi-s).

### Changed
- Start using "changelog" over "change log" since it's the common usage.
- Start versioning based on the current English version at 0.3.0 to help
translation authors keep things up-to-date.
- Rewrite "What makes unicorns cry?" section.
- Rewrite "Ignoring Deprecations" sub-section to clarify the ideal
  scenario.
- Improve "Commit log diffs" sub-section to further argument against
  them.
- Merge "Why can’t people just use a git log diff?" with "Commit log
  diffs"
- Fix typos in Simplified Chinese and Traditional Chinese translations.
- Fix typos in Brazilian Portuguese translation.
- Fix typos in Turkish translation.
- Fix typos in Czech translation.
- Fix typos in Swedish translation.
- Improve phrasing in French translation.
- Fix phrasing and spelling in German translation.

### Removed
- Section about "changelog" vs "CHANGELOG".

## [0.3.0] - 2015-12-03
### Added
- RU translation from [@aishek](https://github.com/aishek).
- pt-BR translation from [@tallesl](https://github.com/tallesl).
- es-ES translation from [@ZeliosAriex](https://github.com/ZeliosAriex).
- [[0.1.0](https://github.com/olivierlacan/keep-a-changelog/compare/v0.0.8...v0.1.0)] Answer "Should you ever rewrite a change log?".
- [[0.0.7](https://github.com/olivierlacan/keep-a-changelog/compare/v0.0.6...v0.0.7)] Link, and make it obvious that date format is ISO 8601.
- [[0.0.6](https://github.com/olivierlacan/keep-a-changelog/compare/v0.0.5...v0.0.6)] README section on "yanked" releases.
- [[0.0.5](https://github.com/olivierlacan/keep-a-changelog/compare/v0.0.4...v0.0.5)] Markdown links to version tags on release headings.
- [[0.0.5](https://github.com/olivierlacan/keep-a-changelog/compare/v0.0.4...v0.0.5)] Unreleased section to gather unreleased changes and encourage note
keeping prior to releases.
- [[0.0.4](https://github.com/olivierlacan/keep-a-changelog/compare/v0.0.3...v0.0.4)] Better explanation of the difference between the file ("CHANGELOG")
and its function "the change log".
- [[0.0.3](https://github.com/olivierlacan/keep-a-changelog/compare/v0.0.2...v0.0.3)] "Why should I care?" section mentioning The Changelog podcast.
- [[0.0.2](https://github.com/olivierlacan/keep-a-changelog/compare/v0.0.1...v0.0.2)] Explanation of the recommended reverse chronological release ordering.
- [[0.0.1](https://github.com/olivierlacan/keep-a-changelog/releases/tag/v0.0.1)] This CHANGELOG file to hopefully serve as an evolving example of a
  standardized open source project CHANGELOG.
- [[0.0.1](https://github.com/olivierlacan/keep-a-changelog/releases/tag/v0.0.1)] CNAME file to enable GitHub Pages custom domain
- [[0.0.1](https://github.com/olivierlacan/keep-a-changelog/releases/tag/v0.0.1)] README now contains answers to common questions about CHANGELOGs
- [[0.0.1](https://github.com/olivierlacan/keep-a-changelog/releases/tag/v0.0.1)] Good examples and basic guidelines, including proper date formatting.
- [[0.0.1](https://github.com/olivierlacan/keep-a-changelog/releases/tag/v0.0.1)] Counter-examples: "What makes unicorns cry?"

### Changed
- [[0.2.0](https://github.com/olivierlacan/keep-a-changelog/compare/v0.1.0...v0.2.0)] Remove exclusionary mentions of "open source" since this project can
benefit both "open" and "closed" source projects equally.
- [[0.1.0](https://github.com/olivierlacan/keep-a-changelog/compare/v0.0.8...v0.1.0)] Improve argument against commit logs.
- [[0.1.0](https://github.com/olivierlacan/keep-a-changelog/compare/v0.0.8...v0.1.0)] Start following [SemVer](https://semver.org) properly.
- [[0.0.8](https://github.com/olivierlacan/keep-a-changelog/compare/v0.0.7...v0.0.8)] Update year to match in every README example.
- [[0.0.8](https://github.com/olivierlacan/keep-a-changelog/compare/v0.0.7...v0.0.8)] Reluctantly stop making fun of Brits only, since most of the world
  writes dates in a strange way.
- [[0.0.7](https://github.com/olivierlacan/keep-a-changelog/compare/v0.0.6...v0.0.7)] Clarified the section on "Is there a standard change log format?".
- [[0.0.4](https://github.com/olivierlacan/keep-a-changelog/compare/v0.0.3...v0.0.4)] Refer to a "change log" instead of a "CHANGELOG" throughout the site
to differentiate between the file and the purpose of the file — the
logging of changes.

### Fixed
- [[0.0.8](https://github.com/olivierlacan/keep-a-changelog/compare/v0.0.7...v0.0.8)] Fix typos in recent README changes.
- [[0.0.8](https://github.com/olivierlacan/keep-a-changelog/compare/v0.0.7...v0.0.8)] Update outdated unreleased diff link.
- [[0.0.7](https://github.com/olivierlacan/keep-a-changelog/compare/v0.0.6...v0.0.7)] Fix Markdown links to tag comparison URL with footnote-style links.

### Removed
- [[0.0.4](https://github.com/olivierlacan/keep-a-changelog/compare/v0.0.3...v0.0.4)] Remove empty sections from CHANGELOG, they occupy too much space and
create too much noise in the file. People will have to assume that the
missing sections were intentionally left out because they contained no
notable changes.

[Unreleased]: https://github.com/olivierlacan/keep-a-changelog/compare/v1.0.0...HEAD
[1.0.0]: https://github.com/olivierlacan/keep-a-changelog/compare/v0.3.0...v1.0.0
[0.3.0]: https://github.com/olivierlacan/keep-a-changelog/compare/v0.2.0...v0.3.0
